Lab 3: COVID-19
…
Top 5 counties in Colorado with the most new cases on 2022-02-01

Question 3: Normalizing Data I used the code to complete the following tasks:

I used the following code to read the population data

pop_url <- 'https://www2.census.gov/programs-surveys/popest/datasets/2020-2023/counties/totals/co-est2023-alldata.csv'

First, I renamed the “fips” column “FIP” in the covid data

colorado_covid_temp <- colorado_covid %>%
  rename(FIP = fips)
colorado_covid_temp

# A tibble: 49,527 × 8
   date       county state    FIP   cases deaths new_cases new_deaths
   <date>     <chr>  <chr>    <chr> <dbl>  <dbl>     <dbl>      <dbl>
 1 2020-03-12 Adams  Colorado 08001     2      0         2          0
 2 2020-03-13 Adams  Colorado 08001     3      0         1          0
 3 2020-03-14 Adams  Colorado 08001     6      0         3          0
 4 2020-03-15 Adams  Colorado 08001     6      0         0          0
 5 2020-03-16 Adams  Colorado 08001     8      0         2          0
 6 2020-03-17 Adams  Colorado 08001    10      0         2          0
 7 2020-03-18 Adams  Colorado 08001    10      0         0          0
 8 2020-03-19 Adams  Colorado 08001    10      0         0          0
 9 2020-03-20 Adams  Colorado 08001    12      0         2          0
10 2020-03-21 Adams  Colorado 08001    14      0         2          0
# ℹ 49,517 more rows
…
